{
  "countries" : [
    "europe/slovakia",
    "europe/slovenia",
    "europe/denmark",
    "europe/sweden",
    "europe/norway",
    "europe/ireland-and-northern-ireland",
    "europe/hungary",
    "europe/belarus",
    "europe/estonia",
    "europe/latvia",
    "europe/lithuania",
    "europe/ukraine",
    "europe/romania",
    "europe/croatia",
    "europe/moldova",
    "europe/bosnia-herzegovina",
    "europe/serbia",
    "north-america/us/washington",
    "north-america/us/oregon",
    "north-america/us-northeast",
    "south-america/colombia",
    "south-america/ecuador"
  ],
  "dbName"    : "osm",
  "coverage"  : true,
  "staleAfterDays": 30,
  "pbFolder"  : "/home/remek/Projects/maps/pb",
  "osmFolder" : "/home/remek/Projects/maps/osm",
  "remoteOutput" : {
    "host" : "zikes.server",
    "username" : "zikes",
    "pkey" : "/home/remek/.ssh/id_rsa",
    "path" : "./maps.pb"
  }
}
