{
	"description" : "A routing profile for an average cyclist. Makes a reasonable effort avoiding big roads and big climbs, but is not overzealous about hopping on a main road if it saves an hour.",
	"means" : "bicycle",
	"highwayCostFactors" : {
		"default" : {
			"cost" : "forbid",
			"designated" : 0.7
		},
		"motorway_link"  : {
			"cost" : "forbid",
			"designated" : "forbid"
		},
		"trunk"          : {
			"cost":3
		},
		"trunk_link"     : {
			"cost":3
		},
		"primary"        : {
			"cost":2
		},
		"primary_link"   : {
			"cost":2
		},
		"secondary"      : {
			"cost":1.2
		},
		"secondary_link" : {
			"cost":1.2
		},
		"tertiary"       : {
			"cost":1
		},
		"tertiary_link"  : {
			"cost":1
		},
		"living_street"  : {
			"cost":1
		},
		"pedestrian"     : {
			"cost":1.5
		},
		"residential"    : {
			"cost":1
		},
		"unclassified"   : {
			"cost":1.3
		},
		"service"        : {
			"cost":1
		},
		"track"          : {
			"cost":2
		},
		"bridleway"      : {
			"cost":2
		},
		"bus_guideway"   : {
			"cost":1
		},
		"raceway"        : {
			"cost":9
		},
		"road"           : {
			"cost":1.2
		},
		"ferry"          : {
			"cost":4,
			"flatCost"   : 500
		},
		"path"           : {
			"cost":3
		},
		"steps"          : {
			"cost":15
		},
		"footway"        : {
			"cost":1.5
		}
	},
	"climbCostFactors" : {
		"costFactors"     : [100,  1,   0.8, 0.8, 0.8, 0.8, 0.8, 0.8, 0.9,  1,
                             1,
                        	 1.2,  1.5, 2,   3,   6,  10,  17,  30,  50,  100]
	},
	"sectionLengthFactors" : {
		"stepMts"         : 40,
		"costFactors" 	  : [1,2,3,3,2,1.8,1.5,1]
	},
	"turnPunishment" : {
		"easy" : {
			"trunk" 		 : 4,
			"trunk_link" 	 : 4,
			"primary"        : 3,
			"primary_link"   : 3,
			"secondary"      : 2,
			"secondary_link" : 2
		},
		"trafficSignals" : {
			"trunk" 		 : 12,
			"trunk_link" 	 : 12,
			"primary"        : 10,
			"primary_link"   : 10,
			"secondary"      : 7,
			"secondary_link" : 7
		},
		"difficult" : {
			"trunk" 		 : 40,
			"trunk_link" 	 : 40,
			"primary"        : 30,
			"primary_link"   : 30
		}
	}
}